[
    { 
        "images": "https://supermarket.am/images/cache/557/1ec/7a5dabdb79df8160b443e09a7c9a705c.JPG", 
        "title": "Набор вин Vino & Vino 2*750мл +подарок Pierlant", 
        "price": "6 000 др",
        "sale": "",
        "id": 1
    },
    { 
        "images": "https://supermarket.am/images/cache/5b8/625/992fe57757c67c81df8eb2df89e50805.jpg", 
        "title": "Набор вин Vino & Vino 2*750мл +подарок Pierlant", 
        "price": "6 000 др",
        "sale": "",
        "id": 2
    },
    { 
        "images": "https://supermarket.am/images/cache/43b/2ff/6db64f7a128aac753039f4e16e905c2b.png", 
        "title": "Набор вин Vino & Vino 2*750мл +подарок Pierlant", 
        "price": "6 000 др",
        "sale": "",
        "id": 3
    },
    { 
        "images": "https://supermarket.am/images/cache/8dc/f12/acb9742bf419f4ff82002902c00253d8.png", 
        "title": "Набор вин Vino & Vino 2*750мл +подарок Pierlant", 
        "price": "6 000 др",
        "sale": "",
        "id": 4
    },
    { 
        "images": "https://supermarket.am/images/cache/6a3/6a7/4fdf21132c68e7ea082f317b6824e206.png", 
        "title": "Набор вин Vino & Vino 2*750мл +подарок Pierlant", 
        "price": "6 000 др",
        "sale": "",
        "id": 5
    },
    { 
        "images": "https://supermarket.am/images/cache/970/11b/3568ab819500b03f30d1d97a4339aef0.JPG", 
        "title": "Набор вин Vino & Vino 2*750мл +подарок Pierlant", 
        "price": "6 000 др",
        "sale": "",
        "id": 6
    },
    { 
        "images": "https://supermarket.am/images/cache/f4a/356/4c9d071a7f734ed40161d19f571d909f.png", 
        "title": "Набор вин Vino & Vino 2*750мл +подарок Pierlant", 
        "price": "6 000 др",
        "sale": "",
        "id": 7
    },
    { 
        "images": "https://supermarket.am/images/cache/0c7/90d/600d8d801ff69f9b18ac31d4e517c11b.jpg", 
        "title": "Набор вин Vino & Vino 2*750мл +подарок Pierlant", 
        "price": "6 000 др",
        "sale": "",
        "id": 8
    },
    { 
        "images": "https://supermarket.am/images/cache/a23/a18/6790783f7762dd22199d1349e6278b67.jpg", 
        "title": "Набор вин Vino & Vino 2*750мл +подарок Pierlant", 
        "price": "6 000 др",
        "sale": "",
        "id": 9
    },
    { 
        "images": "https://supermarket.am/images/cache/f0c/fca/cd43cef4cb0aabbf55e16374298cd3ea.png", 
        "title": "Набор вин Vino & Vino 2*750мл +подарок Pierlant", 
        "price": "6 000 др",
        "sale": "",
        "id": 10
    },
    { 
        "images": "https://supermarket.am/images/cache/3a5/157/b01e85a8c31e28fbcd732ec3d8e8142e.jpg", 
        "title": "Набор вин Vino & Vino 2*750мл +подарок Pierlant", 
        "price": "6 000 др",
        "sale": "",
        "id": 11
    },
    { 
        "images": "https://supermarket.am/images/cache/557/1ec/7a5dabdb79df8160b443e09a7c9a705c.JPG", 
        "title": "Набор вин Vino & Vino 2*750мл +подарок Pierlant", 
        "price": "6 000 др",
        "sale": "",
        "id": 12
    },
    { 
        "images": "https://supermarket.am/images/cache/a23/a18/6790783f7762dd22199d1349e6278b67.jpg", 
        "title": "Набор вин Vino & Vino 2*750мл +подарок Pierlant", 
        "price": "6 000 др",
        "sale": "",
        "id": 13
    },
    { 
        "images": "https://supermarket.am/images/cache/8e4/403/ad85078e022611f887efbee9067bf103.jpg", 
        "title": "Набор вин Vino & Vino 2*750мл +подарок Pierlant", 
        "price": "6 000 др",
        "sale": "",
        "id": 14
    },
    { 
        "images": "https://supermarket.am/images/cache/add/c99/157ac12d45551477bd006941f749508a.JPG", 
        "title": "Набор вин Vino & Vino 2*750мл +подарок Pierlant", 
        "price": "6 000 др",
        "sale": "",
        "id": 15
    },
    { 
        "images": "https://supermarket.am/images/cache/a53/a0d/050ffea50a19f34def221bc7baf61307.jpg", 
        "title": "Набор вин Vino & Vino 2*750мл +подарок Pierlant", 
        "price": "6 000 др",
        "sale": "",
        "id": 16
    },
    { 
        "images": "https://supermarket.am/images/cache/ce7/6e2/8005c5ddffaac862c1fabd843729e0e5.jpg", 
        "title": "Набор вин Vino & Vino 2*750мл +подарок Pierlant", 
        "price": "6 000 др",
        "sale": "",
        "id": 17
    },
    { 
        "images": "https://supermarket.am/images/cache/a6b/d8f/76341b585eb7096830d7efe3f5d2a964.png", 
        "title": "Набор вин Vino & Vino 2*750мл +подарок Pierlant", 
        "price": "6 000 др",
        "sale": "",
        "id": 18
    },
    { 
        "images": "https://supermarket.am/images/cache/a6b/d8f/76341b585eb7096830d7efe3f5d2a964.png", 
        "title": "Набор вин Vino & Vino 2*750мл +подарок Pierlant", 
        "price": "6 000 др",
        "sale": "",
        "id": 19
    },
    { 
        "images": "https://supermarket.am/images/cache/ed2/85d/5817f63d7e02f9224bb31aa548354c12.png", 
        "title": "Набор вин Vino & Vino 2*750мл +подарок Pierlant", 
        "price": "6 000 др",
        "sale": "",
        "id": 20
    },
    { 
        "images": "https://supermarket.am/images/cache/2e9/e10/09a013ca01cacd5b4cb62ac02efed55e.jpg", 
        "title": "Набор вин Vino & Vino 2*750мл +подарок Pierlant", 
        "price": "6 000 др",
        "sale": "",
        "id": 21
    },
    { 
        "images": "https://supermarket.am/images/cache/c55/721/4103bc84dca4be3a94f362fa2797109c.jpg", 
        "title": "Набор вин Vino & Vino 2*750мл +подарок Pierlant", 
        "price": "6 000 др",
        "sale": "",
        "id": 22
    },
    { 
        "images": "https://supermarket.am/images/cache/d91/f7c/8d8faa9bae11dd00f4fbed2ccf2140c8.png", 
        "title": "Набор вин Vino & Vino 2*750мл +подарок Pierlant", 
        "price": "6 000 др",
        "sale": "",
        "id": 23
    },
    { 
        "images": "https://supermarket.am/images/cache/ed0/d58/951b64315b068c2900425de124065c75.png", 
        "title": "Набор вин Vino & Vino 2*750мл +подарок Pierlant", 
        "price": "6 000 др",
        "sale": "",
        "id": 24
    },
    { 
        "images": "https://supermarket.am/images/cache/378/cfb/46c643fa8f070f24fb7d7967dcf30528.JPG", 
        "title": "Набор вин Vino & Vino 2*750мл +подарок Pierlant", 
        "price": "6 000 др",
        "sale": "",
        "id": 25
    },
    { 
        "images": "https://supermarket.am/images/cache/fb0/5e2/ee9e90e7f03202a9a34f4015de0c2def.jpg", 
        "title": "Набор вин Vino & Vino 2*750мл +подарок Pierlant", 
        "price": "6 000 др",
        "sale": "",
        "id": 26
    },
    { 
        "images": "https://supermarket.am/images/cache/e58/0a7/498483c43b281547efc15a140495fec6.jpg", 
        "title": "Набор вин Vino & Vino 2*750мл +подарок Pierlant", 
        "price": "6 000 др",
        "sale": "",
        "id": 27
    },
    { 
        "images": "https://supermarket.am/images/cache/ccc/ec1/6024937df0842c79e02c98c64e4ff50c.jpg", 
        "title": "Набор вин Vino & Vino 2*750мл +подарок Pierlant", 
        "price": "6 000 др",
        "sale": "",
        "id": 665
    },
    { 
        "images": "https://supermarket.am/images/cache/557/1ec/7a5dabdb79df8160b443e09a7c9a705c.JPG", 
        "title": "Набор вин Vino & Vino 2*750мл +подарок Pierlant", 
        "price": "6 000 др",
        "sale": "",
        "id": 687
    },
    { 
        "images": "https://supermarket.am/images/cache/f24/17b/69d80aba323092b9e59970e08c2f729f.JPG", 
        "title": "Набор вин Vino & Vino 2*750мл +подарок Pierlant", 
        "price": "6 000 др",
        "sale": "",
        "id": 693
    },
    { 
        "images": "https://supermarket.am/images/cache/20d/cee/c629a1aea905ad14f50731f640e9e1a9.png", 
        "title": "Набор вин Vino & Vino 2*750мл +подарок Pierlant", 
        "price": "6 000 др",
        "sale": "",
        "id": 546
    },
    { 
        "images": "https://supermarket.am/images/cache/557/1ec/7a5dabdb79df8160b443e09a7c9a705c.JPG", 
        "title": "Набор вин Vino & Vino 2*750мл +подарок Pierlant", 
        "price": "6 000 др",
        "sale": "",
        "id": 6467
    },
    { 
        "images": "https://supermarket.am/images/cache/693/5ae/aef136591964aa3b76a503eac5d8bb24.png", 
        "title": "Набор вин Vino & Vino 2*750мл +подарок Pierlant", 
        "price": "6 000 др",
        "sale": "",
        "id": 6964
    },
    { 
        "images": "https://supermarket.am/images/cache/15f/d3e/5ecf2863850d5b9057c247e35acc70a3.jpg", 
        "title": "Набор вин Vino & Vino 2*750мл +подарок Pierlant", 
        "price": "6 000 др",
        "sale": "",
        "id": 621
    },
    { 
        "images": "https://supermarket.am/images/cache/888/65f/94baa2210e602d36b59ae865386f5138.jpg", 
        "title": "Набор вин Vino & Vino 2*750мл +подарок Pierlant", 
        "price": "6 000 др",
        "sale": "",
        "id": 78
    }
]