[
    {
      "name": "Хлебобулочные изделия",
      "img": "../assets/png/f7c4bfbc89f09f088efa9a130b56a29b.png",

      "product": "Хлеб",
      "a":"Белый",
      "b":"Чёрный серый",
      "c":"Лаваш",

      "d":"Вода",
      "e":"Вареная колбоса",
      "f":"Пироженное",
      "g":"Сыр"
    },
    {
      "name": "Молочные продукты",
      "img": "../assets/png/16f405cca428ae4a93afe76e34168925.png",

      "product": "Хлеб",
      "a":"Белый",
      "b":"Чёрный серый",
      "c":"Лаваш",

      "d":"Вода",
      "e":"Вареная колбоса",
      "f":"Пироженное",
      "g":"Сыр"
    },
    {
      "name": "Бакалея",
      "img": "../assets/png/ed6716e89cb041ee5ecc5c4ad867b57b.png",

      "product": "Хлеб",
      "a":"Белый",
      "b":"Чёрный серый",
      "c":"Лаваш",

      "d":"Вода",
      "e":"Вареная колбоса",
      "f":"Пироженное",
      "g":"Сыр"
    },
    {
      "name": "Сладости",
      "img": "../assets/png/7b243a7ccd5989ecc3d5dbf605fe5fa9.png",

      "product": "Хлеб",
      "a":"Белый",
      "b":"Чёрный серый",
      "c":"Лаваш",

      "d":"Вода",
      "e":"Вареная колбоса",
      "f":"Пироженное",
      "g":"Сыр"
    },
    {
      "name": "Соки и напитки",
      "img": "../assets/png/da5245a3592e41e3945f4565ac647fb9.png",

      "product": "Хлеб",
      "a":"Белый",
      "b":"Чёрный серый",
      "c":"Лаваш",

      "d":"Вода",
      "e":"Вареная колбоса",
      "f":"Пироженное",
      "g":"Сыр"
    },
    {
      "name": "Кофе и чай",
      "img": "../assets/png/4eda1ca22f8f17049d25311d5b90a0a0.png",

      "product": "Хлеб",
      "a":"Белый",
      "b":"Чёрный серый",
      "c":"Лаваш",

      "d":"Вода",
      "e":"Вареная колбоса",
      "f":"Пироженное",
      "g":"Сыр"
    },
    {
      "name": "Алкогольные напитки",
      "img": "../assets/png/3a0c897ed3d9f888529f66a289ffd293.png",

      "product": "Хлеб",
      "a":"Белый",
      "b":"Чёрный серый",
      "c":"Лаваш",

      "d":"Вода",
      "e":"Вареная колбоса",
      "f":"Пироженное",
      "g":"Сыр"
    },
    {
      "name": "Табачные изделия",
      "img": "../assets/png/c0768afa96936c1690182bdb35a7cd93.png",

      "product": "Хлеб",
      "a":"Белый",
      "b":"Чёрный серый",
      "c":"Лаваш",

      "d":"Вода",
      "e":"Вареная колбоса",
      "f":"Пироженное",
      "g":"Сыр"
    },
    {
      "name": "Мясные продукты",
      "img": "../assets/png/e558efc69213083524f8e897aabedc76.png",

      "product": "Хлеб",
      "a":"Белый",
      "b":"Чёрный серый",
      "c":"Лаваш",

      "d":"Вода",
      "e":"Вареная колбоса",
      "f":"Пироженное",
      "g":"Сыр"
    },
    {
      "name": "Азиатская кухня",
      "img": "../assets/png/83436957f5511c793916f62a133ceaec.png",

      "product": "Хлеб",
      "a":"Белый",
      "b":"Чёрный серый",
      "c":"Лаваш",

      "d":"Вода",
      "e":"Вареная колбоса",
      "f":"Пироженное",
      "g":"Сыр"
    },
    {
      "name": "Птица и яйца",
      "img": "../assets/png/e1afe68d0ab80e87bea2cef429675d89.png",

      "product": "Хлеб",
      "a":"Белый",
      "b":"Чёрный серый",
      "c":"Лаваш",

      "d":"Вода",
      "e":"Вареная колбоса",
      "f":"Пироженное",
      "g":"Сыр"
    },
    {
      "name": "Рыба и морепродукты",
      "img": "../assets/png/c383619dbe06eecd4844e2381e7db18f.png",

      "product": "Хлеб",
      "a":"Белый",
      "b":"Чёрный серый",
      "c":"Лаваш",

      "d":"Вода",
      "e":"Вареная колбоса",
      "f":"Пироженное",
      "g":"Сыр"
    },
    {
      "name": "Замороженые продукты",
      "img": "../assets/png/4f73e7c4c0f7bc84ad6d53bfc73953b6.png",

      "product": "Хлеб",
      "a":"Белый",
      "b":"Чёрный серый",
      "c":"Лаваш",

      "d":"Вода",
      "e":"Вареная колбоса",
      "f":"Пироженное",
      "g":"Сыр"
    },
    {
      "name": "Консервированные продукты",
      "img": "../assets/png/3fc3788ed6f3208416186538dbb5d309.png",

      "product": "Хлеб",
      "a":"Белый",
      "b":"Чёрный серый",
      "c":"Лаваш",

      "d":"Вода",
      "e":"Вареная колбоса",
      "f":"Пироженное",
      "g":"Сыр"
    },
    {
      "name": "Свежие овощи и фрукты",
      "img": "../assets/png/f3edb204ceec2b1fb92e7f5aa807f6d8.png",

      "product": "Хлеб",
      "a":"Белый",
      "b":"Чёрный серый",
      "c":"Лаваш",

      "d":"Вода",
      "e":"Вареная колбоса",
      "f":"Пироженное",
      "g":"Сыр"
    },
    {
      "name": "Детское питание",
      "img": "../assets/png/99854124117ad24be7099fc25975a120.png",

      "product": "Хлеб",
      "a":"Белый",
      "b":"Чёрный серый",
      "c":"Лаваш",

      "d":"Вода",
      "e":"Вареная колбоса",
      "f":"Пироженное",
      "g":"Сыр"
    },
    {
      "name": "Без холестерина",
      "img": "../assets/png/72108cb654397e8210b9c1c9ad4b024b.png",

      "product": "Хлеб",
      "a":"Белый",
      "b":"Чёрный серый",
      "c":"Лаваш",

      "d":"Вода",
      "e":"Вареная колбоса",
      "f":"Пироженное",
      "g":"Сыр"
    },
    {
      "name": "Диабетические продукты",
      "img": "../assets/png/c1ced1f806a42388b0ff45bc8ef5e50c.png",

      "product": "Хлеб",
      "a":"Белый",
      "b":"Чёрный серый",
      "c":"Лаваш",

      "d":"Вода",
      "e":"Вареная колбоса",
      "f":"Пироженное",
      "g":"Сыр"
    },
    {
      "name": "Все для животных",
      "img": "../assets/png/831bfa28d3fc59535051d1b735f38d82.png",

      "product": "Хлеб",
      "a":"Белый",
      "b":"Чёрный серый",
      "c":"Лаваш",

      "d":"Вода",
      "e":"Вареная колбоса",
      "f":"Пироженное",
      "g":"Сыр"
    }
  ]
